<?xml version="1.0" encoding="UTF-8"?>
<testsuite name="de.uniks.abalone.modelgenerator.ModelGenerator" tests="1" skipped="0" failures="0" errors="0" timestamp="2017-04-11T21:03:14" hostname="Laptop-Olaf" time="6.492">
  <properties/>
  <testcase name="generateModel" classname="de.uniks.abalone.modelgenerator.ModelGenerator" time="6.492"/>
  <system-out><![CDATA[
]]></system-out>
  <system-err><![CDATA[]]></system-err>
</testsuite>
